<?xml version="1.0" encoding="utf-8"?>
<!-- Generator: Adobe Illustrator 24.0.3, SVG Export Plug-In . SVG Version: 6.00 Build 0)  -->
<svg version="1.1" id="Layer_1" xmlns="http://www.w3.org/2000/svg" xmlns:xlink="http://www.w3.org/1999/xlink" x="0px" y="0px"
	 viewBox="0 0 878 730.8" style="enable-background:new 0 0 878 730.8;" xml:space="preserve">
<style type="text/css">
	.st0{fill:#144E8C;}
	.st1{fill:#0C9ED9;}
	.st2{fill:none;stroke:#0C9ED9;stroke-width:0.5;stroke-miterlimit:10;}
</style>
<path class="st0" d="M159.2,173.1c0,0-157.7,103.9-127.9,289.4c29.8,185.5,207.8,259.2,279,268.3c0,0-192.1-49.7-233.5-224.4
	C35.4,331.7,159.2,173.1,159.2,173.1"/>
<path class="st1" d="M116.9,493.2c0,0,43.7,183.8,228.2,219.2c184.5,35.4,314.6-106.7,347.5-170.5c0,0-112.4,163.5-290.7,142.7
	C223.6,663.8,116.9,493.2,116.9,493.2"/>
<path class="st2" d="M116.9,493.2c0,0,43.7,183.8,228.2,219.2c184.5,35.4,314.6-106.7,347.5-170.5c0,0-112.4,163.5-290.7,142.7
	C223.6,663.8,116.9,493.2,116.9,493.2z"/>
<path class="st1" d="M697.4,198.2c0,0-89.1-201.9-341.6-198.1C103.3,3.8,1,238.9,0,348.2c0,0,47.8-198.7,244.9-270.7
	C442,5.4,586,157,612.5,247.2c0,0-28.2-109.3-54.7-148.2C557.9,99,625.8,111.1,697.4,198.2"/>
<path class="st0" d="M116.9,354.8H143c9.9,0,16.6,1.6,22.5,5.8c6.2,4.5,10.8,11.7,10.8,21.9c0,9.3-5,16.1-12.5,19.7v0.3
	c12.4,1.8,19.5,12,19.5,24.1c0,16.3-13.3,28.3-30.1,28.3h-36.2V354.8z M145.4,398.4c10.3,0,18.3-5.9,18.3-15.7c0-5.1-1.8-9.3-5-12.2
	c-3.3-3-8.4-4.6-15.8-4.6h-13.3v32.5H145.4z M148.8,443.8c17,0,21.9-8,21.9-17.1c0-7.9-4.9-17.2-21.9-17.2h-19.2v34.4H148.8z"/>
<path class="st0" d="M198.7,386.3h11.8v9.7h0.3c5.9-10.7,11.6-11.3,21.6-11.3v12.5c-1.7-0.4-3.6-0.7-5.4-0.7
	c-9.9,0-16.5,6.8-16.5,19.4v39h-11.8V386.3z"/>
<path class="st0" d="M249.9,356.3c4.6,0,8.3,3.7,8.3,8.3c0,4.6-3.7,8.3-8.3,8.3c-4.6,0-8.3-3.7-8.3-8.3
	C241.6,360,245.3,356.3,249.9,356.3 M244,386.3h11.8v68.6H244V386.3z"/>
<path class="st0" d="M319.8,408.9c0-11.3-11.3-13.8-20.5-13.8c-6.5,0-12.5,1.6-19,4.7l-5.1-9.9c10.4-4.3,18.6-5.3,24.8-5.3
	c16.5,0,31.7,7,31.7,23.3v46.9h-11.1v-7.4c-6.1,6.3-12.8,9-21.9,9c-16.7,0-29.9-9.3-29.9-24.6c0-12.5,10.7-23.6,29.8-23.6
	c7.2,0,14.9,2.1,21.2,7.8V408.9z M300.8,418.7c-14.5,0-19.4,7-19.4,13.7c0,6.7,4.9,13.7,19.4,13.7c14.5,0,19.4-7,19.4-13.7
	C320.2,425.7,315.3,418.7,300.8,418.7"/>
<path class="st0" d="M393.8,415c0-10.3-4.2-19.2-15.9-19.2c-11.1,0-17.8,7.5-17.8,20.5v38.6h-11.8v-68.6h11.8v8h0.3
	c3.6-6.2,11.2-9.6,18.8-9.6c13.3,0,26.5,7.2,26.5,25.8v44.4h-11.8V415z"/>
<polygon class="st0" points="452.2,396.7 420.1,396.7 420.1,386.3 471.9,386.3 436.3,444.5 470.1,444.5 470.1,454.9 416.4,454.9 "/>
<path class="st0" d="M545.6,431.6H499l-9.1,23.3h-13.8l40.7-100.1h11.1l40.7,100.1h-13.8L545.6,431.6z M522.3,371.4l-19,49.1h37.9
	L522.3,371.4z"/>
<path class="st0" d="M627.1,402.6c-4.7-4.6-10-6.8-15.9-6.8c-11.7,0-22.6,8.6-22.6,25.4c0,14,10.1,24.2,23.8,24.2
	c5.7,0,11.2-3.2,15.3-7l7,8.7c-6.2,6.3-14.9,9.3-23.7,9.3c-21.1,0-35-16.7-35-35.7c0-19.6,15.4-36.1,35.2-36.1
	c10.4,0,19.2,4.3,24.1,8.6L627.1,402.6z"/>
<path class="st0" d="M705.5,386.3h11.8v97.6h-11.8v-39.5h-0.3c-5,7.1-13.7,12.1-25.5,12.1c-19.1,0-36.2-15-36.2-36.6
	c0-19.7,16.3-35.2,35.7-35.2c10.1,0,20.4,4.2,26.1,12.4h0.3V386.3z M681.3,395.8c-16.1,0-25.1,12.8-25.1,24.2
	c0,15.8,12.2,25.4,24.8,25.4c13.6,0,24.6-11.1,24.6-24.8C705.5,406.8,694.2,395.8,681.3,395.8"/>
<path class="st0" d="M780.9,446.9h-0.3c-3.6,6.2-11.2,9.6-18.8,9.6c-13.3,0-26.5-7.2-26.5-25.8v-44.4h11.8v39.9
	c0,10.3,4.2,19.2,15.9,19.2c11.1,0,17.8-7.5,17.8-20.5v-38.6h11.8v68.6h-11.8V446.9z"/>
<path class="st0" d="M875,441.6c-9.2,10.3-19,14.9-30.9,14.9c-24.4,0-37.4-17.6-37.4-35.9c0-19.5,14-35.8,35.4-35.8
	c21.2,0,35.9,16.2,35.9,40.4h-58.7c1.8,11.7,11.3,20.3,24.6,20.3c8.4,0,15.9-4,22-11.1L875,441.6z M864.6,415.4
	c-1.2-11.3-10.4-19.6-22.6-19.6c-14.5,0-21.5,10.3-22.6,19.6H864.6z"/>
<path class="st0" d="M614.1,157c0,0,41.6,22.2,84.8,77.6c46.1,59.1,1.1,80.6,1.1,80.6s-26,16.9-51.6-4.4
	C624.6,291,631.2,198.8,614.1,157"/>
</svg>
